<?xml version="1.0" encoding="UTF-8"?>
<svg width="1654px" height="881px" viewBox="0 0 1654 881" version="1.1" xmlns="http://www.w3.org/2000/svg" xmlns:xlink="http://www.w3.org/1999/xlink">
    <!-- Generator: Sketch 51.2 (57519) - http://www.bohemiancoding.com/sketch -->
    <title>Group 22</title>
    <desc>Created with Sketch.</desc>
    <defs>
        <polygon id="path-1" points="0.000927201146 0.241936481 1647.51635 0.241936481 1647.51635 767.595308 0.000927201146 767.595308"></polygon>
    </defs>
    <g id="Page-1" stroke="none" stroke-width="1" fill="none" fill-rule="evenodd">
        <g id="Artboard" transform="translate(-152.000000, -107.000000)">
            <g id="Group-22" transform="translate(946.162489, 521.252276) rotate(170.000000) translate(-946.162489, -521.252276) translate(122.162489, 137.252276)">
                <g id="Group-3">
                    <mask id="mask-2" fill="white">
                        <use xlink:href="#path-1"></use>
                    </mask>
                    <g id="Clip-2"></g>
                    <path d="M0.557088903,225.085282 C34.2935632,225.085282 74.1787581,220.605644 111.589649,220.605644 C111.589649,228.7424 103.248131,239.572246 100.203403,243.989974 C95.6251992,250.654154 87.8318811,248.973737 82.1498706,268.789393 C80.4015597,274.878694 87.0540309,283.187914 82.1350544,294.128314 C79.2014479,300.633297 74.2676552,301.990897 71.9785532,305.692237 C69.0375387,310.437204 40.9534425,341.511654 64.0074407,341.511654 C62.4665565,358.355624 33.5453454,349.201773 34.5454385,364.957894 C34.8713948,370.092011 110.76735,372.860277 118.390282,372.860277 C118.390282,391.291799 98.1884008,372.811633 95.7289126,381.815131 C92.4693499,393.746092 126.087295,390.548878 129.665405,396.788532 C126.420659,415.843577 126.198416,394.811831 132.117486,416.046996 C112.01191,453.440699 85.2094147,433.244738 61.8590926,459.945682 C69.0671711,472.482478 94.1732122,454.577191 103.433334,453.467232 C120.123776,451.455153 156.942019,442.341102 168.202327,464.588939 C162.586989,476.201506 129.057942,470.996635 127.835606,477.395487 C124.968672,492.311399 168.876464,474.034652 170.506245,493.766287 C166.987399,491.648077 164.787194,507.435153 167.305947,511.675995 C164.231587,506.484391 185.522458,511.357601 184.100103,520.635272 C180.447911,517.446901 178.166217,518.915055 177.240205,525.048578 C177.188349,534.397003 201.775823,538.549402 204.494594,538.549402 C204.494594,561.730314 153.415765,574.727014 145.807649,576.637383 C131.858202,580.139726 113.523162,586.145006 100.262668,587.807734 C93.9213369,588.599299 84.4315645,591.752292 79.8681767,592.287372 C71.5118431,593.264668 64.0444812,590.774997 56.9401161,595.825093 C53.0212327,598.615469 57.7105582,605.717443 59.4736853,605.717443 C59.4736853,611.015179 39.9014927,630.817568 36.8123162,632.586428 C27.2114223,638.092005 10.2691042,628.47825 3.10547431,643.469339 C6.91323623,652.079266 45.9909485,649.94779 52.132261,650.496136 C69.1782925,652.012934 84.3648916,651.062171 99.9811603,654.975774 C129.302409,662.32981 157.230935,664.054449 186.374389,672.889905 C234.727039,687.553755 283.946436,707.988512 334.817839,717.673021 C392.400978,728.631109 451.72502,736.856308 509.834133,743.44089 C574.603127,750.777237 643.765121,765.175759 710.334282,766.913664 C804.039302,769.363535 893.43281,764.583191 984.011614,762.451714 C1042.26148,761.080848 1109.67517,763.915446 1167.56204,749.017222 C1278.52792,720.454553 1395.161,725.743445 1506.36395,686.381885 C1523.40257,680.350073 1614.1888,637.640945 1578.97812,592.349282 C1573.6517,585.499372 1563.21369,587.215166 1559.59113,581.112599 C1556.88717,576.566628 1548.83457,547.389281 1549.34573,538.598046 C1550.19025,524.164148 1545.46389,531.633159 1552.00524,516.155634 C1553.7091,512.11821 1567.15479,520.736981 1568.64382,516.160056 C1574.48881,498.245925 1550.75327,507.200779 1545.98986,507.200779 C1545.98986,486.133656 1569.27351,502.561944 1572.81458,487.703519 C1573.28129,485.757773 1521.56537,496.777771 1526.4473,468.688273 C1529.30683,452.233452 1550.1458,478.523135 1554.65733,460.936243 C1555.34629,458.247576 1532.07745,452.31305 1530.12913,453.467232 C1530.39582,450.128508 1572.88125,444.507955 1577.71133,444.507955 C1578.68179,438.078149 1570.71068,433.010365 1568.59197,429.574354 C1569.80689,404.593627 1601.0987,438.24619 1590.80144,399.729262 C1583.74152,373.29807 1567.01404,387.913276 1557.30943,375.00502 C1564.98422,354.141315 1564.71012,369.18547 1563.20628,341.511654 C1562.50251,328.652041 1549.5902,338.610723 1561.05052,319.064819 C1566.49547,309.782726 1590.56438,309.765037 1599.23926,310.167453 C1613.02573,310.804242 1627.84933,317.941593 1638.92444,303.565182 C1640.5394,301.464661 1646.12511,290.311998 1646.79925,287.72504 C1648.14752,282.484792 1647.70303,256.756722 1644.562,251.954267 C1640.19122,245.272398 1631.21261,253.373777 1627.56042,247.474628 C1618.65589,233.062841 1628.20492,220.512778 1624.05639,207.171151 C1621.89322,200.219531 1609.87729,177.936316 1607.17334,171.347312 C1605.12129,166.350282 1599.70597,156.696728 1596.86126,148.586504 C1592.94238,137.38962 1594.40918,129.469549 1589.40131,120.665048 C1580.53382,105.094657 1566.96218,103.303686 1557.22054,88.2860636 C1549.87911,76.9742033 1548.15303,69.4565478 1539.41888,57.1850809 C1528.50675,41.8579081 1542.66363,41.6589113 1521.85428,37.7541527 C1521.95059,37.7718413 1518.63917,46.0191515 1518.06134,45.917442 C1508.85307,44.2945129 1463.35995,27.9679341 1464.33041,25.8674128 C1461.77461,19.017502 1455.34438,25.3986648 1455.34438,32.5271711 C1444.21742,32.5271711 1434.10537,21.5823492 1422.51911,19.07499 C1417.46678,17.9827189 1413.51086,21.8874775 1406.48798,14.542286 C1403.29509,21.7371244 1383.95996,10.3235546 1378.3224,10.1378243 C1367.35101,9.77963015 1336.11847,-1.4526315 1327.67324,13.8391641 C1340.16329,-8.79340092 1297.00372,3.71686215 1298.92982,3.45595529 C1289.88454,4.68531306 1257.22964,11.1814518 1254.89609,1.06799415 C1248.88072,12.3267887 1209.88449,12.2958336 1200.34287,14.5820853 C1185.69706,18.0976948 1170.74752,15.6301349 1159.54648,19.0882564 C1139.87798,25.168713 1121.62443,18.8317717 1105.20808,14.6130404 C1094.90342,11.9685945 1069.33808,11.8491965 1061.81145,19.8621327 C1051.13638,31.2137924 1061.33733,21.6884808 1049.67699,19.0926786 C1038.32037,16.5676308 1033.57919,18.9511698 1024.08201,19.9063542 C993.064309,23.0283923 956.372003,23.1389461 928.406437,23.5723168 C893.306873,24.1162413 850.851068,18.6062421 815.121816,19.0926786 C797.453504,19.3358968 784.963452,22.2412496 768.73972,19.0926786 C751.627015,15.7716437 733.440137,24.0366426 717.208996,23.5723168 C628.356279,21.0384247 537.303358,20.6536976 439.612781,28.0784879 C396.51988,31.3553012 337.403265,28.1492423 295.925329,28.1536645 C281.924026,28.1536645 161.372061,19.8355998 161.372061,28.0475328 C161.372061,31.7754055 191.700811,37.2146503 193.515795,37.0068093 C198.894073,36.3921304 206.346619,33.6415529 216.666098,36.3434867 C225.785466,38.73587 236.297555,39.4964799 245.305802,39.2709502 C249.639538,39.1648186 258.736682,35.4811674 264.418692,37.0068093 C268.256086,38.0371703 272.812066,44.0778275 275.508613,45.2231644 C279.516394,46.9256923 280.086817,34.8045784 283.805682,37.0068093 C283.279707,41.0486546 284.027925,44.033606 286.079968,45.9616635 C284.383514,62.9648313 188.344943,50.6800978 181.840634,50.4413017 C176.721638,50.2467271 171.350768,54.3195275 165.11315,54.3770155 C154.423266,54.4743028 150.289548,54.3991262 138.703284,52.7585085 C116.175261,49.565716 91.6840916,52.5197124 65.2297768,54.9165178 C61.3183015,55.2702898 -12.0514924,91.9918255 1.72016015,113.134126 L18.6847026,113.134126 C18.6847026,125.569212 -1.09491675,225.085282 0.557088903,225.085282" id="Fill-1" fill="#F68E1F" mask="url(#mask-2)"></path>
                </g>
                <path d="M145.736449,25.0785787 C152.652993,25.0785787 153.718364,18.3580403 144.029624,18.3580403 C143.432793,21.8527203 144.001734,24.0962185 145.736449,25.0785787 C146.30539,25.0785787 144.810524,25.4469638 145.736449,25.0785787" id="Fill-4" fill="#F68E1F"></path>
                <path d="M124.573571,22.1833642 C126.770908,24.9543132 139.682394,31.1491359 141.155803,24.711457 C144.000418,12.2063553 116.499634,12.0192367 124.573571,22.1833642" id="Fill-6" fill="#F68E1F"></path>
                <path d="M118.989663,28.6804925 C124.667003,28.6804925 125.520739,29.0814197 125.520739,21.8001728 C123.744969,21.8001728 115.702782,24.351837 118.989663,28.6804925 C120.517849,28.6804925 118.588407,28.1470553 118.989663,28.6804925" id="Fill-8" fill="#F68E1F"></path>
                <path d="M92.3414255,25.7753987 C95.913147,31.9380056 108.459605,34.7778276 108.459605,21.8653309 C108.508533,21.8653309 79.6551738,12.4494857 83.1639883,24.4733307 C85.9878151,27.100649 89.0492907,27.5333838 92.3414255,25.7753987 C93.0963099,27.0774668 89.8810615,25.7753987 92.3414255,25.7753987" id="Fill-10" fill="#F68E1F"></path>
                <path d="M1587.33896,433.777128 C1584.99915,437.612532 1589.83475,429.667984 1587.33896,433.777128 C1586.94899,434.421938 1587.58269,433.378684 1587.33896,433.777128" id="Fill-12" fill="#F68E1F"></path>
                <path d="M689.754738,737.763744 C690.115458,737.89684 690.017966,737.777512 689.754738,737.763744" id="Fill-14" fill="#F68E1F"></path>
                <path d="M110.896963,81.4638038 C111.247934,81.5968995 111.160191,81.4775723 110.896963,81.4638038" id="Fill-16" fill="#F68E1F"></path>
                <path d="M1050.47453,39.0108356 C1050.73776,39.1255734 1050.68901,39.0613202 1050.47453,39.0108356" id="Fill-18" fill="#F68E1F"></path>
                <path d="M359.501145,68.8426511 C359.822868,69.0354105 359.744874,68.9206727 359.501145,68.8426511" id="Fill-20" fill="#F68E1F"></path>
            </g>
        </g>
    </g>
</svg>