<?xml version="1.0" encoding="UTF-8"?>
<svg width="20px" height="21px" viewBox="0 0 20 21" version="1.1" xmlns="http://www.w3.org/2000/svg" xmlns:xlink="http://www.w3.org/1999/xlink">
    <!-- Generator: Sketch 51.2 (57519) - http://www.bohemiancoding.com/sketch -->
    <title>noun_Phone_2969739</title>
    <desc>Created with Sketch.</desc>
    <defs></defs>
    <g id="Page-1" stroke="none" stroke-width="1" fill="none" fill-rule="evenodd">
        <g id="Nueva-Coleccion" transform="translate(-902.000000, -2360.000000)" fill="#F68E1F">
            <g id="locales-y-footer" transform="translate(-101.000000, 2132.000000)">
                <g id="formulario" transform="translate(418.000000, 0.000000)">
                    <g id="ENCONTRANOS">
                        <g id="uno" transform="translate(542.000000, 120.000000)">
                            <g id="noun_Location_1731420">
                                <g id="noun_Phone_2969739" transform="translate(43.000000, 108.000000)">
                                    <path d="M5.84553362,1.33014054 C5.64625406,0.665875356 5.44697451,0.134463209 4.78270932,0.0680366907 L3.52060547,0.00161017233 C2.19207511,-0.064816346 0,1.9279792 0,5.24930512 C0.0664265184,11.0284122 8.7018739,20.4609778 14.4145545,20.99239 C17.8023069,21.3245226 19.9279555,19.331727 19.994382,17.9367701 L19.994382,16.7410928 C20.0608085,16.0768276 19.5293964,15.8111215 18.8651312,15.5454155 C17.6030274,15.0804298 16.3409235,14.4825912 15.0788197,14.0176055 C14.5474075,13.818326 14.0824219,14.1504586 13.7502893,14.3497381 C13.2853037,14.7482972 12.9531711,15.0140033 12.554612,15.4789889 C12.2224794,15.744695 11.8903468,15.8775481 11.5582142,15.5454155 C8.7018739,14.0840321 6.37694576,11.5598244 5.18126843,8.63705756 C4.91556236,8.23849845 5.0484154,7.90636586 5.38054799,7.64065978 C5.84553362,7.24210067 6.17766621,6.90996808 6.57622532,6.51140897 C6.84193139,6.2457029 7.17406398,5.78071727 7.04121095,5.24930512 C6.64265184,3.98720127 6.24409273,2.59224439 5.84553362,1.33014054 Z" id="Shape"></path>
                                </g>
                            </g>
                        </g>
                    </g>
                </g>
            </g>
        </g>
    </g>
</svg>